%YAML 1.1
%TAG !u! tag:unity3d.com,2011:
--- !u!21 &2100000
Material:
  serializedVersion: 3
  m_ObjectHideFlags: 0
  m_PrefabParentObject: {fileID: 0}
  m_PrefabInternal: {fileID: 0}
  m_Name: HighPerformanceSuperCar_Diffuse
  m_Shader: {fileID: 20, guid: 0000000000000000f000000000000000, type: 0}
  m_ShaderKeywords: []
  m_CustomRenderQueue: -1
  m_SavedProperties:
    serializedVersion: 2
    m_TexEnvs:
      data:
        first:
          name: _MainTex
        second:
          m_Texture: {fileID: 2800000, guid: 431f67566c55b164ea51decbce4c4932, type: 3}
          m_Scale: {x: 1, y: 1}
          m_Offset: {x: 0, y: 0}
      data:
        first:
          name: _Cube
        second:
          m_Texture: {fileID: 8900000, guid: db8cb69818c9d5241967b938b22c2c0d, type: 2}
          m_Scale: {x: 1, y: 1}
          m_Offset: {x: 0, y: 0}
    m_Floats: {}
    m_Colors:
      data:
        first:
          name: _Color
        second: {r: .875, g: .79175961, b: .443933845, a: 1}
      data:
        first:
          name: _ReflectColor
        second: {r: .198529422, g: .102687642, b: 0, a: .501960814}
