%YAML 1.1
%TAG !u! tag:unity3d.com,2011:
--- !u!1 &100000
GameObject:
  m_ObjectHideFlags: 0
  m_PrefabParentObject: {fileID: 0}
  m_PrefabInternal: {fileID: 100100000}
  serializedVersion: 4
  m_Component:
  - 4: {fileID: 400000}
  - 114: {fileID: 11400000}
  m_Layer: 0
  m_Name: XMLLocalData
  m_TagString: Untagged
  m_Icon: {fileID: 0}
  m_NavMeshLayer: 0
  m_StaticEditorFlags: 0
  m_IsActive: 1
--- !u!4 &400000
Transform:
  m_ObjectHideFlags: 1
  m_PrefabParentObject: {fileID: 0}
  m_PrefabInternal: {fileID: 100100000}
  m_GameObject: {fileID: 100000}
  m_LocalRotation: {x: 0, y: 0, z: 0, w: 1}
  m_LocalPosition: {x: 0, y: 0, z: 0}
  m_LocalScale: {x: 1, y: 1, z: 1}
  m_Children: []
  m_Father: {fileID: 0}
--- !u!114 &11400000
MonoBehaviour:
  m_ObjectHideFlags: 1
  m_PrefabParentObject: {fileID: 0}
  m_PrefabInternal: {fileID: 100100000}
  m_GameObject: {fileID: 100000}
  m_Enabled: 1
  m_EditorHideFlags: 0
  m_Script: {fileID: 11500000, guid: 96e777c14f9f64a19aa796c4d88754fa, type: 3}
  m_Name: 
  m_EditorClassIdentifier: 
  LocalNodes:
  - NodeName: main_menu
    LocalItemId:
    - play
    - exit
  - NodeName: messages
    LocalItemId:
    - welcome
  - NodeName: text
    LocalItemId:
    - startText1
    - startText2
    - startText3
    - startText4
    - startText1_1
  - NodeName: prize
    LocalItemId:
    - parrot
    - handHook
    - toyPirate
    - watch
    - pirateHat
    - pirateChest
    - shark
    - toyPirateShip
    - monkey
    - mermaid
    - bonus
  - NodeName: prizeMessages
    LocalItemId:
    - parrot
    - handHook
    - toyPirate
    - watch
    - pirateHat
    - pirateChest
    - shark
    - toyPirateShip
    - monkey
    - mernaid
--- !u!1001 &100100000
Prefab:
  m_ObjectHideFlags: 1
  serializedVersion: 2
  m_Modification:
    m_TransformParent: {fileID: 0}
    m_Modifications: []
    m_RemovedComponents: []
  m_ParentPrefab: {fileID: 0}
  m_RootGameObject: {fileID: 100000}
  m_IsPrefabParent: 1
  m_IsExploded: 1
